com\example\accountbook\repository\LoginUserRepository.class
com\example\accountbook\entity\LoginUser.class
com\example\accountbook\service\CategoryService.class
com\example\accountbook\repository\ExtendedBalanceRepository.class
com\example\accountbook\WebSecurityConfig.class
com\example\accountbook\AccountbookApplication.class
com\example\accountbook\controller\LoginController.class
com\example\accountbook\service\BalanceService.class
com\example\accountbook\controller\MainController.class
com\example\accountbook\entity\ExtendedBalance.class
com\example\accountbook\controller\BalanceController.class
com\example\accountbook\entity\Balance.class
com\example\accountbook\service\SelectedService.class
com\example\accountbook\repository\BalanceRepository.class
com\example\accountbook\repository\BalanceRepository$BalanceInterface.class
com\example\accountbook\entity\Category.class
com\example\accountbook\entity\User.class
com\example\accountbook\service\DateService.class
com\example\accountbook\controller\UserController.class
com\example\accountbook\MvcConfig.class
com\example\accountbook\repository\CategoryRepository.class
com\example\accountbook\service\UserDetailsServiceImpl.class
com\example\accountbook\bean\DateBean.class
com\example\accountbook\bean\CalendarBean.class
com\example\accountbook\repository\UserRepository.class
com\example\accountbook\service\UserService.class
